Maison!35000 Rennes!01 janv. 2011
Location!32 Rue du Roi Arthur, 56000 Vannes!14 juil. 2014
Vacances!56100 Lorient!25 avr. 2015
Grands parents!33 Rue Laennec, 56230 Questembert!01 août 2013
Mairie!Rue Philippe Marcombes, Clermont-Ferrand!15 janv. 2018
Assurance!43 Avenue de la Margeride, 63000 Clermont-Ferrand!12 juil. 2014
Université Clermont 1!Boulevard François Mitterrand, Clermont-Ferrand!30 nov. 2012
Université Clermont 2!Avenue Carnot, Clermont-Ferrand!25 nov. 2012
Faculté de médecine!Place Henri Dunant, Clermont-Ferrand!20 juil. 2015
Faculté de droit!41 Boulevard François Mitterrand, Clermont-Ferrand!07 nov. 2014
ISIMA!isima, 63173 Aubière!12 déc. 2012
STAPS!staps, 63170 Aubière!05 déc. 2013
IUT Informatique!24 Avenue des Landais, 63170 Aubière!22 mars 2014
IUT Biologie!24 Avenue des Landais, 63170 Aubière!04 sept. 2014
Polytech!Polytech, 63170 Aubière!20 avr. 1996